Game Engine/quartus_projects/MazeRAMTester/simulation/qsim/MazeRAMTester.msim.vcd
$comment
	File created using the following command:
		vcd file MazeRAMTester.msim.vcd -direction
$end
$date
	Thu May 05 15:37:16 2016
$end
$version
	ModelSim Version 10.1d
$end
$timescale
	1ps
$end
$scope module MazeRAMTester_vlg_vec_tst $end
$var reg 1 ! CLK $end
$var wire 1 " OUTPUT [3] $end
$var wire 1 # OUTPUT [2] $end
$var wire 1 $ OUTPUT [1] $end
$var wire 1 % OUTPUT [0] $end
$var wire 1 & sampler $end
$scope module i1 $end
$var wire 1 ' gnd $end
$var wire 1 ( vcc $end
$var wire 1 ) unknown $end
$var tri1 1 * devclrn $end
$var tri1 1 + devpor $end
$var tri1 1 , devoe $end
$var wire 1 - inst1|MazeMemory_core_inst|if_if_acc_itm[3]~17_combout $end
$var wire 1 . inst1|MazeMemory_core_inst|maze_rsc_singleport_we~0_combout $end
$var wire 1 / inst1|MazeMemory_core_inst|MazeMemory_core_fsm_inst|state_var.st_main_2~q $end
$var wire 1 0 inst|MazeArrayTester_core_inst|out_rsc_mgc_out_stdreg_d[0]~0_combout $end
$var wire 1 1 inst|MazeArrayTester_core_inst|out_rsc_mgc_out_stdreg_d[0]~1_combout $end
$var wire 1 2 inst|MazeArrayTester_core_inst|and_5_cse~0_combout $end
$var wire 1 3 inst1|MazeMemory_core_inst|if_if_nor_itm~2_combout $end
$var wire 1 4 inst1|MazeMemory_core_inst|MazeMemory_core_fsm_inst|state_var.st_main_2~feeder_combout $end
$var wire 1 5 inst1|maze_rsc_singleport|mem_rtl_0_bypass[0]~feeder_combout $end
$var wire 1 6 OUTPUT[3]~output_o $end
$var wire 1 7 OUTPUT[2]~output_o $end
$var wire 1 8 OUTPUT[1]~output_o $end
$var wire 1 9 OUTPUT[0]~output_o $end
$var wire 1 : CLK~input_o $end
$var wire 1 ; CLK~inputclkctrl_outclk $end
$var wire 1 < inst1|MazeMemory_core_inst|if_if_acc_itm[1]~12_cout $end
$var wire 1 = inst1|MazeMemory_core_inst|if_if_acc_itm[1]~14 $end
$var wire 1 > inst1|MazeMemory_core_inst|if_if_acc_itm[2]~15_combout $end
$var wire 1 ? inst1|MazeMemory_core_inst|maze_vinit_ndx_1_sva[2]~feeder_combout $end
$var wire 1 @ inst1|MazeMemory_core_inst|MazeMemory_core_fsm_inst|Selector0~0_combout $end
$var wire 1 A inst1|MazeMemory_core_inst|MazeMemory_core_fsm_inst|state_var.st_maze_vinit~q $end
$var wire 1 B inst1|MazeMemory_core_inst|MazeMemory_core_fsm_inst|state_var.st_maze_vinit_1~q $end
$var wire 1 C inst1|MazeMemory_core_inst|if_if_acc_itm[2]~16 $end
$var wire 1 D inst1|MazeMemory_core_inst|if_if_acc_itm[3]~18 $end
$var wire 1 E inst1|MazeMemory_core_inst|if_if_acc_itm[4]~19_combout $end
$var wire 1 F inst1|MazeMemory_core_inst|if_if_acc_itm[4]~20 $end
$var wire 1 G inst1|MazeMemory_core_inst|if_if_acc_itm[5]~21_combout $end
$var wire 1 H inst1|MazeMemory_core_inst|maze_vinit_ndx_1_sva[5]~feeder_combout $end
$var wire 1 I inst1|MazeMemory_core_inst|if_if_acc_itm[5]~22 $end
$var wire 1 J inst1|MazeMemory_core_inst|if_if_acc_itm[6]~23_combout $end
$var wire 1 K inst1|MazeMemory_core_inst|if_if_acc_itm[6]~24 $end
$var wire 1 L inst1|MazeMemory_core_inst|if_if_acc_itm[7]~25_combout $end
$var wire 1 M inst1|MazeMemory_core_inst|if_if_nor_itm~1_combout $end
$var wire 1 N inst1|MazeMemory_core_inst|if_if_acc_itm[1]~13_combout $end
$var wire 1 O inst1|MazeMemory_core_inst|if_if_acc_itm[0]~35_combout $end
$var wire 1 P inst1|MazeMemory_core_inst|maze_vinit_ndx_1_sva[0]~feeder_combout $end
$var wire 1 Q inst1|MazeMemory_core_inst|if_if_nor_itm~0_combout $end
$var wire 1 R inst1|MazeMemory_core_inst|if_if_nor_itm~3_combout $end
$var wire 1 S inst1|MazeMemory_core_inst|if_if_nor_itm~feeder_combout $end
$var wire 1 T inst1|MazeMemory_core_inst|if_if_nor_itm~q $end
$var wire 1 U inst1|MazeMemory_core_inst|MazeMemory_core_fsm_inst|Selector1~0_combout $end
$var wire 1 V inst1|MazeMemory_core_inst|MazeMemory_core_fsm_inst|state_var.st_main~q $end
$var wire 1 W inst1|MazeMemory_core_inst|MazeMemory_core_fsm_inst|state_var.st_main_1~feeder_combout $end
$var wire 1 X inst1|MazeMemory_core_inst|MazeMemory_core_fsm_inst|state_var.st_main_1~q $end
$var wire 1 Y inst|MazeArrayTester_core_inst|MazeArrayTester_core_fsm_inst|state_var.st_core_rlp~feeder_combout $end
$var wire 1 Z inst|MazeArrayTester_core_inst|MazeArrayTester_core_fsm_inst|state_var.st_core_rlp~q $end
$var wire 1 [ inst|MazeArrayTester_core_inst|write_rsc_mgc_out_stdreg_d~2_combout $end
$var wire 1 \ inst|MazeArrayTester_core_inst|MazeArrayTester_core_fsm_inst|Selector0~0_combout $end
$var wire 1 ] inst|MazeArrayTester_core_inst|MazeArrayTester_core_fsm_inst|state_var.st_main~q $end
$var wire 1 ^ inst|MazeArrayTester_core_inst|col_rsc_mgc_out_stdreg_d~0_combout $end
$var wire 1 _ inst|MazeArrayTester_core_inst|if_for_i_1_sva_2~6_combout $end
$var wire 1 ` inst|MazeArrayTester_core_inst|mux_7_nl[0]~0_combout $end
$var wire 1 a inst|MazeArrayTester_core_inst|Add0~16_combout $end
$var wire 1 b inst|MazeArrayTester_core_inst|MazeArrayTester_core_fsm_inst|Selector1~0_combout $end
$var wire 1 c inst|MazeArrayTester_core_inst|MazeArrayTester_core_fsm_inst|Selector1~1_combout $end
$var wire 1 d inst|MazeArrayTester_core_inst|MazeArrayTester_core_fsm_inst|state_var.st_if_for_for~q $end
$var wire 1 e inst|MazeArrayTester_core_inst|MazeArrayTester_core_fsm_inst|state_var.st_if_for_for_1~q $end
$var wire 1 f inst|MazeArrayTester_core_inst|col_rsc_mgc_out_stdreg_d~1_combout $end
$var wire 1 g inst|MazeArrayTester_core_inst|if_for_for_j_1_sva_2[1]~feeder_combout $end
$var wire 1 h inst|MazeArrayTester_core_inst|if_for_i_1_sva_2~9_combout $end
$var wire 1 i inst|MazeArrayTester_core_inst|if_for_i_1_sva_2[1]~feeder_combout $end
$var wire 1 j inst|MazeArrayTester_core_inst|mux_7_nl[1]~1_combout $end
$var wire 1 k inst|MazeArrayTester_core_inst|Add0~11_combout $end
$var wire 1 l inst|MazeArrayTester_core_inst|if_for_i_1_sva_2~10_combout $end
$var wire 1 m inst|MazeArrayTester_core_inst|mux_7_nl[2]~2_combout $end
$var wire 1 n inst|MazeArrayTester_core_inst|Add0~12_combout $end
$var wire 1 o inst|MazeArrayTester_core_inst|if_for_i_1_sva_2~11_combout $end
$var wire 1 p inst|MazeArrayTester_core_inst|col_rsc_mgc_out_stdreg_d~3_combout $end
$var wire 1 q inst|MazeArrayTester_core_inst|if_for_for_j_1_sva_2[3]~feeder_combout $end
$var wire 1 r inst|MazeArrayTester_core_inst|mux_7_nl[3]~3_combout $end
$var wire 1 s inst|MazeArrayTester_core_inst|Add0~13_combout $end
$var wire 1 t inst|MazeArrayTester_core_inst|if_for_i_1_sva_2~8_combout $end
$var wire 1 u inst|MazeArrayTester_core_inst|Add0~17_combout $end
$var wire 1 v inst|MazeArrayTester_core_inst|if_for_for_j_1_sva_2~0_combout $end
$var wire 1 w inst|MazeArrayTester_core_inst|mux_7_nl[4]~4_combout $end
$var wire 1 x inst|MazeArrayTester_core_inst|if_for_i_1_sva_2~7_combout $end
$var wire 1 y inst|MazeArrayTester_core_inst|Add0~15_combout $end
$var wire 1 z inst|MazeArrayTester_core_inst|if_for_for_j_1_sva_2~1_combout $end
$var wire 1 { inst|MazeArrayTester_core_inst|mux_7_nl[5]~5_combout $end
$var wire 1 | inst|MazeArrayTester_core_inst|Add0~14_combout $end
$var wire 1 } inst|MazeArrayTester_core_inst|MazeArrayTester_core_fsm_inst|state_var_NS.st_if_for~0_combout $end
$var wire 1 ~ inst|MazeArrayTester_core_inst|MazeArrayTester_core_fsm_inst|state_var.st_if_for~q $end
$var wire 1 !! inst|MazeArrayTester_core_inst|and_dcpl_8~0_combout $end
$var wire 1 "! inst|MazeArrayTester_core_inst|written_sva~q $end
$var wire 1 #! inst|MazeArrayTester_core_inst|write_rsc_mgc_out_stdreg_d~0_combout $end
$var wire 1 $! inst|MazeArrayTester_core_inst|Add0~8_combout $end
$var wire 1 %! inst|MazeArrayTester_core_inst|Add0~9_combout $end
$var wire 1 &! inst|MazeArrayTester_core_inst|write_rsc_mgc_out_stdreg_d~1_combout $end
$var wire 1 '! inst|MazeArrayTester_core_inst|write_rsc_mgc_out_stdreg_d~q $end
$var wire 1 (! inst1|MazeMemory_core_inst|write_1_sva~feeder_combout $end
$var wire 1 )! inst1|MazeMemory_core_inst|write_1_sva~q $end
$var wire 1 *! inst|MazeArrayTester_core_inst|col_rsc_mgc_out_stdreg_d~2_combout $end
$var wire 1 +! inst|MazeArrayTester_core_inst|out_rsc_mgc_out_stdreg_d[0]~3_combout $end
$var wire 1 ,! inst|MazeArrayTester_core_inst|out_rsc_mgc_out_stdreg_d[0]~2_combout $end
$var wire 1 -! inst|MazeArrayTester_core_inst|out_rsc_mgc_out_stdreg_d[0]~4_combout $end
$var wire 1 .! inst|MazeArrayTester_core_inst|out_rsc_mgc_out_stdreg_d[0]~5_combout $end
$var wire 1 /! inst1|MazeMemory_core_inst|out_rsc_mgc_out_stdreg_d[0]~0_combout $end
$var wire 1 0! inst|MazeArrayTester_core_inst|Add0~10_combout $end
$var wire 1 1! inst|MazeArrayTester_core_inst|and_5_cse~1_combout $end
$var wire 1 2! inst1|MazeMemory_core_inst|maze_rsc_singleport_addr[0]~0_combout $end
$var wire 1 3! inst1|MazeMemory_core_inst|maze_rsc_singleport_addr[1]~1_combout $end
$var wire 1 4! inst1|MazeMemory_core_inst|maze_rsc_singleport_addr[2]~2_combout $end
$var wire 1 5! inst1|MazeMemory_core_inst|maze_rsc_singleport_addr[3]~3_combout $end
$var wire 1 6! inst1|MazeMemory_core_inst|maze_rsc_singleport_addr[4]~4_combout $end
$var wire 1 7! inst1|MazeMemory_core_inst|maze_rsc_singleport_addr[5]~5_combout $end
$var wire 1 8! inst1|MazeMemory_core_inst|maze_rsc_singleport_addr[6]~6_combout $end
$var wire 1 9! inst1|MazeMemory_core_inst|maze_rsc_singleport_addr[7]~7_combout $end
$var wire 1 :! inst1|MazeMemory_core_inst|if_if_acc_itm[7]~26 $end
$var wire 1 ;! inst1|MazeMemory_core_inst|if_if_acc_itm[8]~27_combout $end
$var wire 1 <! inst1|MazeMemory_core_inst|maze_vinit_ndx_1_sva[8]~feeder_combout $end
$var wire 1 =! inst1|MazeMemory_core_inst|maze_rsc_singleport_addr[8]~8_combout $end
$var wire 1 >! inst1|MazeMemory_core_inst|if_if_acc_itm[8]~28 $end
$var wire 1 ?! inst1|MazeMemory_core_inst|if_if_acc_itm[9]~29_combout $end
$var wire 1 @! inst1|MazeMemory_core_inst|maze_vinit_ndx_1_sva[9]~feeder_combout $end
$var wire 1 A! inst1|MazeMemory_core_inst|maze_rsc_singleport_addr[9]~9_combout $end
$var wire 1 B! inst1|MazeMemory_core_inst|if_if_acc_itm[9]~30 $end
$var wire 1 C! inst1|MazeMemory_core_inst|if_if_acc_itm[10]~31_combout $end
$var wire 1 D! inst1|MazeMemory_core_inst|maze_vinit_ndx_1_sva[10]~feeder_combout $end
$var wire 1 E! inst1|MazeMemory_core_inst|maze_rsc_singleport_addr[10]~10_combout $end
$var wire 1 F! inst1|MazeMemory_core_inst|if_if_acc_itm[10]~32 $end
$var wire 1 G! inst1|MazeMemory_core_inst|if_if_acc_itm[11]~33_combout $end
$var wire 1 H! inst1|MazeMemory_core_inst|maze_rsc_singleport_addr[11]~11_combout $end
$var wire 1 I! inst1|maze_rsc_singleport|mem_rtl_0|auto_generated|ram_block1a0~portbdataout $end
$var wire 1 J! inst1|MazeMemory_core_inst|out_rsc_mgc_out_stdreg_d[0]~1_combout $end
$var wire 1 K! inst1|MazeMemory_core_inst|out_rsc_mgc_out_stdreg_d[0]~2_combout $end
$var wire 1 L! inst1|maze_rsc_singleport|mem_rtl_0_bypass [0] $end
$var wire 1 M! inst1|maze_rsc_singleport|mem_rtl_0_bypass [1] $end
$var wire 1 N! inst1|MazeMemory_core_inst|out_rsc_mgc_out_stdreg_d [3] $end
$var wire 1 O! inst1|MazeMemory_core_inst|out_rsc_mgc_out_stdreg_d [2] $end
$var wire 1 P! inst1|MazeMemory_core_inst|out_rsc_mgc_out_stdreg_d [1] $end
$var wire 1 Q! inst1|MazeMemory_core_inst|out_rsc_mgc_out_stdreg_d [0] $end
$var wire 1 R! inst1|MazeMemory_core_inst|maze_vinit_ndx_1_sva [11] $end
$var wire 1 S! inst1|MazeMemory_core_inst|maze_vinit_ndx_1_sva [10] $end
$var wire 1 T! inst1|MazeMemory_core_inst|maze_vinit_ndx_1_sva [9] $end
$var wire 1 U! inst1|MazeMemory_core_inst|maze_vinit_ndx_1_sva [8] $end
$var wire 1 V! inst1|MazeMemory_core_inst|maze_vinit_ndx_1_sva [7] $end
$var wire 1 W! inst1|MazeMemory_core_inst|maze_vinit_ndx_1_sva [6] $end
$var wire 1 X! inst1|MazeMemory_core_inst|maze_vinit_ndx_1_sva [5] $end
$var wire 1 Y! inst1|MazeMemory_core_inst|maze_vinit_ndx_1_sva [4] $end
$var wire 1 Z! inst1|MazeMemory_core_inst|maze_vinit_ndx_1_sva [3] $end
$var wire 1 [! inst1|MazeMemory_core_inst|maze_vinit_ndx_1_sva [2] $end
$var wire 1 \! inst1|MazeMemory_core_inst|maze_vinit_ndx_1_sva [1] $end
$var wire 1 ]! inst1|MazeMemory_core_inst|maze_vinit_ndx_1_sva [0] $end
$var wire 1 ^! inst1|MazeMemory_core_inst|maze_rsc_singleport_data_in_reg [3] $end
$var wire 1 _! inst1|MazeMemory_core_inst|maze_rsc_singleport_data_in_reg [2] $end
$var wire 1 `! inst1|MazeMemory_core_inst|maze_rsc_singleport_data_in_reg [1] $end
$var wire 1 a! inst1|MazeMemory_core_inst|maze_rsc_singleport_data_in_reg [0] $end
$var wire 1 b! inst1|MazeMemory_core_inst|maze_rsc_singleport_data_in [3] $end
$var wire 1 c! inst1|MazeMemory_core_inst|maze_rsc_singleport_data_in [2] $end
$var wire 1 d! inst1|MazeMemory_core_inst|maze_rsc_singleport_data_in [1] $end
$var wire 1 e! inst1|MazeMemory_core_inst|maze_rsc_singleport_data_in [0] $end
$var wire 1 f! inst1|MazeMemory_core_inst|if_if_acc_itm [11] $end
$var wire 1 g! inst1|MazeMemory_core_inst|if_if_acc_itm [10] $end
$var wire 1 h! inst1|MazeMemory_core_inst|if_if_acc_itm [9] $end
$var wire 1 i! inst1|MazeMemory_core_inst|if_if_acc_itm [8] $end
$var wire 1 j! inst1|MazeMemory_core_inst|if_if_acc_itm [7] $end
$var wire 1 k! inst1|MazeMemory_core_inst|if_if_acc_itm [6] $end
$var wire 1 l! inst1|MazeMemory_core_inst|if_if_acc_itm [5] $end
$var wire 1 m! inst1|MazeMemory_core_inst|if_if_acc_itm [4] $end
$var wire 1 n! inst1|MazeMemory_core_inst|if_if_acc_itm [3] $end
$var wire 1 o! inst1|MazeMemory_core_inst|if_if_acc_itm [2] $end
$var wire 1 p! inst1|MazeMemory_core_inst|if_if_acc_itm [1] $end
$var wire 1 q! inst1|MazeMemory_core_inst|if_if_acc_itm [0] $end
$var wire 1 r! inst|MazeArrayTester_core_inst|row_rsc_mgc_out_stdreg_d [4] $end
$var wire 1 s! inst|MazeArrayTester_core_inst|row_rsc_mgc_out_stdreg_d [3] $end
$var wire 1 t! inst|MazeArrayTester_core_inst|row_rsc_mgc_out_stdreg_d [2] $end
$var wire 1 u! inst|MazeArrayTester_core_inst|row_rsc_mgc_out_stdreg_d [1] $end
$var wire 1 v! inst|MazeArrayTester_core_inst|row_rsc_mgc_out_stdreg_d [0] $end
$var wire 1 w! inst|MazeArrayTester_core_inst|out_rsc_mgc_out_stdreg_d [3] $end
$var wire 1 x! inst|MazeArrayTester_core_inst|out_rsc_mgc_out_stdreg_d [2] $end
$var wire 1 y! inst|MazeArrayTester_core_inst|out_rsc_mgc_out_stdreg_d [1] $end
$var wire 1 z! inst|MazeArrayTester_core_inst|out_rsc_mgc_out_stdreg_d [0] $end
$var wire 1 {! inst|MazeArrayTester_core_inst|if_for_i_1_sva_2 [5] $end
$var wire 1 |! inst|MazeArrayTester_core_inst|if_for_i_1_sva_2 [4] $end
$var wire 1 }! inst|MazeArrayTester_core_inst|if_for_i_1_sva_2 [3] $end
$var wire 1 ~! inst|MazeArrayTester_core_inst|if_for_i_1_sva_2 [2] $end
$var wire 1 !" inst|MazeArrayTester_core_inst|if_for_i_1_sva_2 [1] $end
$var wire 1 "" inst|MazeArrayTester_core_inst|if_for_i_1_sva_2 [0] $end
$var wire 1 #" inst|MazeArrayTester_core_inst|if_for_for_j_1_sva_2 [5] $end
$var wire 1 $" inst|MazeArrayTester_core_inst|if_for_for_j_1_sva_2 [4] $end
$var wire 1 %" inst|MazeArrayTester_core_inst|if_for_for_j_1_sva_2 [3] $end
$var wire 1 &" inst|MazeArrayTester_core_inst|if_for_for_j_1_sva_2 [2] $end
$var wire 1 '" inst|MazeArrayTester_core_inst|if_for_for_j_1_sva_2 [1] $end
$var wire 1 (" inst|MazeArrayTester_core_inst|if_for_for_j_1_sva_2 [0] $end
$var wire 1 )" inst|MazeArrayTester_core_inst|if_for_for_j_1_sva_1 [6] $end
$var wire 1 *" inst|MazeArrayTester_core_inst|if_for_for_j_1_sva_1 [5] $end
$var wire 1 +" inst|MazeArrayTester_core_inst|if_for_for_j_1_sva_1 [4] $end
$var wire 1 ," inst|MazeArrayTester_core_inst|if_for_for_j_1_sva_1 [3] $end
$var wire 1 -" inst|MazeArrayTester_core_inst|if_for_for_j_1_sva_1 [2] $end
$var wire 1 ." inst|MazeArrayTester_core_inst|if_for_for_j_1_sva_1 [1] $end
$var wire 1 /" inst|MazeArrayTester_core_inst|if_for_for_j_1_sva_1 [0] $end
$var wire 1 0" inst|MazeArrayTester_core_inst|col_rsc_mgc_out_stdreg_d [4] $end
$var wire 1 1" inst|MazeArrayTester_core_inst|col_rsc_mgc_out_stdreg_d [3] $end
$var wire 1 2" inst|MazeArrayTester_core_inst|col_rsc_mgc_out_stdreg_d [2] $end
$var wire 1 3" inst|MazeArrayTester_core_inst|col_rsc_mgc_out_stdreg_d [1] $end
$var wire 1 4" inst|MazeArrayTester_core_inst|col_rsc_mgc_out_stdreg_d [0] $end
$var wire 1 5" inst1|maze_rsc_singleport|mem_rtl_0|auto_generated|ram_block1a0_PORTBDATAOUT_bus [1] $end
$var wire 1 6" inst1|maze_rsc_singleport|mem_rtl_0|auto_generated|ram_block1a0_PORTBDATAOUT_bus [0] $end
$upscope $end
$upscope $end
$enddefinitions $end
#0
$dumpvars
0!
0%
0$
0#
0"
x&
0'
1(
x)
1*
1+
1,
1-
0.
0/
10
01
02
03
04
05
06
07
08
09
0:
0;
0<
1=
1>
0?
1@
0A
0B
0C
1D
1E
0F
1G
0H
1I
1J
0K
1L
0M
1N
1O
0P
0Q
1R
1S
0T
0U
0V
0W
0X
1Y
0Z
0[
1\
0]
0^
0_
1`
0a
1b
0c
0d
0e
0f
0g
0h
0i
0j
0k
0l
0m
0n
0o
0p
0q
0r
0s
0t
0u
0v
0w
0x
0y
0z
0{
0|
0}
0~
0!!
0"!
0#!
0$!
0%!
1&!
0'!
0(!
0)!
0*!
0+!
0,!
0-!
0.!
0/!
00!
01!
02!
03!
04!
05!
06!
07!
08!
09!
1:!
1;!
0<!
0=!
0>!
1?!
0@!
0A!
1B!
1C!
0D!
0E!
0F!
1G!
0H!
0I!
0J!
0K!
0M!
0L!
0Q!
zP!
zO!
zN!
0]!
0\!
0[!
0Z!
0Y!
0X!
0W!
0V!
0U!
0T!
0S!
0R!
0a!
z`!
z_!
z^!
0e!
zd!
zc!
zb!
0q!
0p!
0o!
0n!
0m!
0l!
0k!
0j!
0i!
0h!
0g!
0f!
0v!
0u!
0t!
0s!
zr!
0z!
zy!
zx!
zw!
0""
0!"
0~!
0}!
0|!
0{!
0("
0'"
0&"
0%"
0$"
0#"
0/"
0."
0-"
0,"
0+"
0*"
0)"
04"
03"
02"
01"
z0"
06"
05"
$end
#5000
1!
1:
1;
0&
1f!
1g!
1h!
1i!
1'!
1/"
1]
1Z
1T
1q!
1p!
1j!
1k!
1l!
1m!
1A
1o!
1n!
1D!
1@!
1<!
1(!
1#!
1.
1!!
0b
0&!
0\
0@
1P
1H
1?
1&!
15
11!
1c
#10000
0!
0:
0;
1&
#15000
1!
1:
1;
0&
1)!
1"!
1d
0]
1B
0A
1L!
1b
1.!
11
0!!
1U
0.
01!
0c
05
#20000
0!
0:
0;
1&
#25000
1!
1:
1;
0&
1R!
1S!
1T!
1U!
1z!
0"!
1e
0d
1V
1]!
1\!
1V!
1W!
1X!
1Y!
1[!
0B
1Z!
0L!
0G!
13
1F!
0C!
0B!
0?!
1>!
0;!
1e!
0b
1^
01
1W
1.
1Q
0O
1<
0=
0N
1M
0:!
0L
1K
0J
0I
0G
1F
0E
1C
0>
0U
0D
0-
0R
1G!
1C!
1?!
11!
1c
15
1N
1>
1;!
1L
1J
1G
1-
1E
0S
#30000
0!
0:
0;
1&
#35000
1!
1:
1;
0&
14"
1M!
1a!
0e
1d
1("
1X
0V
0T
0q!
1L!
12!
1/!
1b
0^
11
1-!
1a
0`
14
1H!
1E!
1A!
1=!
19!
18!
17!
16!
15!
14!
13!
0e!
0W
0.
0P
1K!
01!
0c
05
#40000
0!
0:
0;
1&
#45000
1!
1:
1;
0&
0M!
0a!
1e
0d
1."
0("
0/"
0X
1/
0L!
1Q!
1f
0b
01
0-!
0a
1`
04
1U
19
1%
1g
11!
1c
#50000
0!
0:
0;
1&
#55000
1!
1:
1;
0&
13"
04"
1'"
0e
1d
0."
1/"
1V
0/
02!
1+!
1j
0f
1b
11
0H!
0E!
0A!
0=!
09!
08!
07!
06!
05!
04!
1e!
1W
1.
0U
1-!
1a
0g
01!
0c
15
#60000
0!
0:
0;
1&
#65000
1!
1:
1;
0&
1M!
1a!
0'"
1e
0d
1."
1X
0V
1L!
0+!
0j
1f
0b
1^
01
14
1H!
1E!
1A!
1=!
19!
18!
17!
16!
15!
14!
12!
0e!
0W
0.
0-!
0a
1g
11!
1c
05
#70000
0!
0:
0;
1&
#75000
1!
1:
1;
0&
14"
0M!
0a!
1'"
0e
1d
0."
1("
0X
1/
0L!
1j
0f
1b
0^
11
1-!
1a
0`
04
1U
1k
0a
0g
01!
0c
#80000
0!
0:
0;
1&
#85000
1!
1:
1;
0&
1-"
0'"
1e
0d
0("
0/"
1V
0/
1*!
0j
0b
01
0-!
1a
1`
0H!
0E!
0A!
0=!
09!
08!
07!
06!
05!
04!
1e!
1W
1.
0U
0k
0a
11!
1c
15
#90000
0!
0:
0;
1&
#95000
1!
1:
1;
0&
12"
03"
04"
1M!
1a!
1&"
0-"
0e
1d
1/"
1X
0V
1L!
14!
1+!
1m
0*!
1b
11
14
1H!
1E!
1A!
1=!
19!
18!
17!
16!
15!
0e!
0W
0.
1-!
1k
01!
0c
05
#100000
0!
0:
0;
1&
#105000
1!
1:
1;
0&
0M!
0a!
0&"
1-"
1e
0d
0X
1/
0L!
0+!
0m
1*!
0b
1^
01
04
1U
0-!
0k
11!
1c
#110000
0!
0:
0;
1&
#115000
1!
1:
1;
0&
14"
1&"
0-"
0e
1d
1("
1V
0/
1m
0*!
1b
0^
11
1-!
1a
0`
0H!
0E!
0A!
0=!
09!
08!
07!
06!
05!
03!
1e!
1W
1.
0U
1k
01!
0c
15
#120000
0!
0:
0;
1&
#125000
1!
1:
1;
0&
1M!
1a!
0&"
1-"
1e
0d
1."
0("
0/"
1X
0V
1L!
0m
1*!
1f
0b
01
0-!
0a
1`
14
1H!
1E!
1A!
1=!
19!
18!
17!
16!
15!
13!
0e!
0W
0.
0k
1g
11!
1c
05
#130000
0!
0:
0;
1&
#135000
1!
1:
1;
0&
13"
04"
0M!
0a!
1&"
0-"
1'"
0e
1d
0."
1/"
0X
1/
0L!
1+!
1m
0*!
1j
0f
1b
11
04
1U
1-!
1k
1a
0g
01!
0c
#140000
0!
0:
0;
1&
#145000
1!
1:
1;
0&
0&"
1-"
0'"
1e
0d
1."
1V
0/
0+!
0m
1*!
0j
1f
0b
1^
01
0H!
0E!
0A!
0=!
09!
08!
07!
06!
05!
02!
1e!
1W
1.
0U
0-!
0k
0a
1g
11!
1c
15
#150000
0!
0:
0;
1&
#155000
1!
1:
1;
0&
14"
1M!
1a!
1&"
0-"
1'"
0e
1d
0."
1("
1X
0V
1L!
12!
1m
0*!
1j
0f
1b
0^
11
1-!
1a
0`
14
1H!
1E!
1A!
1=!
19!
18!
17!
16!
15!
0e!
0W
0.
1n
0a
0g
01!
0c
05
#160000
0!
0:
0;
1&
#165000
1!
1:
1;
0&
0M!
0a!
0&"
1,"
0'"
1e
0d
0("
0/"
0X
1/
0L!
0m
1p
0j
0b
01
0-!
1a
1`
04
1U
0n
1q
0a
11!
1c
#170000
0!
0:
0;
1&
#175000
1!
1:
1;
0&
11"
02"
03"
04"
1%"
0,"
0e
1d
1/"
1V
0/
04!
03!
02!
1+!
1r
0p
1b
11
0H!
0E!
0A!
0=!
09!
08!
07!
06!
1e!
1W
1.
0U
1-!
1n
0q
01!
0c
15
#180000
0!
0:
0;
1&
#185000
1!
1:
1;
0&
1M!
1a!
0%"
1,"
1e
0d
1X
0V
1L!
0+!
0r
1p
0b
1^
01
14
1H!
1E!
1A!
1=!
19!
18!
17!
16!
14!
13!
12!
0e!
0W
0.
0-!
0n
1q
11!
1c
05
#190000
0!
0:
0;
1&
#195000
1!
1:
1;
0&
14"
0M!
0a!
1%"
0,"
0e
1d
1("
0X
1/
0L!
1r
0p
1b
0^
11
1-!
1a
0`
04
1U
1n
0q
01!
0c
#200000
0!
0:
0;
1&
#205000
1!
1:
1;
0&
0%"
1,"
1e
0d
1."
0("
0/"
1V
0/
0r
1p
1f
0b
01
0-!
0a
1`
0H!
0E!
0A!
0=!
09!
08!
07!
06!
04!
03!
1e!
1W
1.
0U
0n
1q
1g
11!
1c
15
#210000
0!
0:
0;
1&
#215000
1!
1:
1;
0&
13"
04"
1M!
1a!
1%"
0,"
1'"
0e
1d
0."
1/"
1X
0V
1L!
13!
1+!
1r
0p
1j
0f
1b
11
14
1H!
1E!
1A!
1=!
19!
18!
17!
16!
14!
0e!
0W
0.
1-!
1n
0q
1a
0g
01!
0c
05
#220000
0!
0:
0;
1&
#225000
1!
1:
1;
0&
0M!
0a!
0%"
1,"
0'"
1e
0d
1."
0X
1/
0L!
0+!
0r
1p
0j
1f
0b
1^
01
04
1U
0-!
0n
1q
0a
1g
11!
1c
#230000
0!
0:
0;
1&
#235000
1!
1:
1;
0&
14"
1%"
0,"
1'"
0e
1d
0."
1("
1V
0/
1r
0p
1j
0f
1b
0^
11
1-!
1a
0`
0H!
0E!
0A!
0=!
09!
08!
07!
06!
04!
1e!
1W
1.
0U
1n
0q
1k
0a
0g
01!
0c
15
#240000
0!
0:
0;
1&
#245000
1!
1:
1;
0&
1M!
1a!
1-"
0%"
1,"
0'"
1e
0d
0("
0/"
1X
0V
1L!
1*!
0r
1p
0j
0b
01
0-!
1a
1`
14
1H!
1E!
1A!
1=!
19!
18!
17!
16!
14!
0e!
0W
0.
0n
1q
0k
0a
11!
1c
05
#250000
0!
0:
0;
1&
#255000
1!
1:
1;
0&
12"
03"
04"
0M!
0a!
1&"
0-"
1%"
0,"
0e
1d
1/"
0X
1/
0L!
1+!
1m
0*!
1r
0p
1b
11
04
1U
1-!
1n
1k
0q
01!
0c
#260000
0!
0:
0;
1&
#265000
1!
1:
1;
0&
0&"
1-"
0%"
1,"
1e
0d
1V
0/
0+!
0m
1*!
0r
1p
0b
1^
01
0H!
0E!
0A!
0=!
09!
08!
07!
06!
03!
02!
1e!
1W
1.
0U
0-!
0n
0k
1q
11!
1c
15
#270000
0!
0:
0;
1&
#275000
1!
1:
1;
0&
14"
1M!
1a!
1&"
0-"
1%"
0,"
0e
1d
1("
1X
0V
1L!
12!
1m
0*!
1r
0p
1b
0^
11
1-!
1a
0`
14
1H!
1E!
1A!
1=!
19!
18!
17!
16!
13!
0e!
0W
0.
1n
1k
0q
01!
0c
05
#280000
0!
0:
0;
1&
#285000
1!
1:
1;
0&
0M!
0a!
0&"
1-"
0%"
1,"
1e
0d
1."
0("
0/"
0X
1/
0L!
0m
1*!
0r
1p
1f
0b
01
0-!
0a
1`
04
1U
0n
0k
1q
1g
11!
1c
#290000
0!
0:
0;
1&
#295000
1!
1:
1;
0&
13"
04"
1&"
0-"
1%"
0,"
1'"
0e
1d
0."
1/"
1V
0/
02!
1+!
1m
0*!
1r
0p
1j
0f
1b
11
0H!
0E!
0A!
0=!
09!
08!
07!
06!
1e!
1W
1.
0U
1-!
1n
1k
0q
1a
0g
01!
0c
15
#300000
0!
0:
0;
1&
#305000
1!
1:
1;
0&
1M!
1a!
0&"
1-"
0%"
1,"
0'"
1e
0d
1."
1X
0V
1L!
0+!
0m
1*!
0r
1p
0j
1f
0b
1^
01
14
1H!
1E!
1A!
1=!
19!
18!
17!
16!
12!
0e!
0W
0.
0-!
0n
0k
1q
0a
1g
11!
1c
05
#310000
0!
0:
0;
1&
